12:37:23.341 OPCUALink::startNetwork
12:37:23.341 Socket created
12:37:23.343 OK socket connected 7
12:37:23.343 envoi trame HELLO OPCUA....
12:37:23.344 OPCUA send 72/72 bytes
12:37:23.345 --------------opcua recv [ACK] string -------------------
12:37:23.345 D)rx chunkType 1 BYTE(s): [F]
12:37:23.345 E)rx frameSize 4: [28]
12:37:23.345 -------- RX OPCUA FRAME (20 bytes) ------------
12:37:23.345 FRAME ACK version:0
12:37:23.345 FRAME ACK ReceiveBufferSize:65536
12:37:23.345 FRAME ACK SendBufferSize:65536
12:37:23.345 FRAME ACK MaxMessageSize:0
12:37:23.345 FRAME ACK MaxChunkCount:0
12:37:27.344 OPCUACommand::OpenSecureChannel...
12:37:27.344 OPCUACommand::OpenSecureChannel _internal_buf_size=132...
12:37:27.344 cstaSend 132/132 bytes
12:37:27.346 --------------opcua recv [OPN] string -------------------
12:37:27.346 D)rx chunkType 1 BYTE(s): [F]
12:37:27.346 E)rx frameSize 4: [136]
12:37:27.346 -------- RX OPCUA FRAME (128 bytes) ------------
12:37:27.346 RX FRAME openSecureChannelResponse --> SecureChannelId:8336
12:37:27.346 FRAME ACK SecurityPolicyLen:47
12:37:27.346 FRAME ACK SenderCertificate:70747468
12:37:27.346 FRAME ACK SequenceNumber:1865363258
12:37:27.347 FRAME ACK RequestId:1868981104
12:37:28.347 --> CreateSessionRequest _SecureChannelId= 8336 00002090
12:37:28.347 --> CreateSessionRequest _SecureChannelId= 90 20 00 00
12:37:28.347 OPCUACommand::CreateSessionRequest _internal_buf_size=108...
12:37:28.348 cstaSend 108/108 bytes
12:37:28.349 --------------opcua recv [ERR] string -------------------
12:37:28.349 D)rx chunkType 1 BYTE(s): [F]
12:37:28.349 E)rx frameSize 4: [16]
12:37:28.349 -------- RX OPCUA FRAME (8 bytes) ------------
12:37:28.349 FRAME ERR Error:80B00000
12:37:28.349 FRAME ACK SecurityPolicyLen:-1
12:37:28.349 FRAME ACK Reason:0
